{
	"code":200,
	"errorCode":null,
	"errorMsg":"",
	"data":{
		"pagination":{
			"page":5,
			"size":10,
			"totalPage":15,
			"total":149
		},
		"result":[{
			"id":1001,
			"name":"王aa",
			"no":"20094444",
			"class":"计算机一班"
		},{
			"id":1002,
			"name":"王ab",
			"no":"20094445",
			"class":"计算机一班"
		},{
			"id":1003,
			"name":"王bb",
			"no":"20094445",
			"class":"计算机一班"
		},{
			"id":1004,
			"name":"王bc",
			"no":"20094445",
			"class":"计算机一班"
		},{
			"id":1005,
			"name":"王cc",
			"no":"20094445",
			"class":"计算机一班"
		},{
			"id":1006,
			"name":"王cd",
			"no":"20094445",
			"class":"计算机一班"
		},{
			"id":1007,
			"name":"王e",
			"no":"20094445",
			"class":"计算机一班"
		},{
			"id":1008,
			"name":"王f",
			"no":"20094445",
			"class":"计算机一班"
		},{
			"id":1009,
			"name":"王g",
			"no":"20094445",
			"class":"计算机一班"
		},{
			"id":1010,
			"name":"王h",
			"no":"20094445",
			"class":"计算机一班"
		}]
	}
}